servlets\addRabbitServlet.class
accessOrganization\User.class
servlets\loginServlet.class
classes\Note.class
servlets\startServlet.class
servlets\delRabbitServlet.class
DBworker\DBmetods.class
servlets\personDiaryServlet.class
classes\Processor.class
filters\UTF8Filter.class
DBworker\ConnectorDB.class
filters\addRabbitFilter.class
filters\loginFilter.class
servlets\addNoteServlet.class
classes\Rabbit.class
filters\addNoteFilter.class
servlets\delNoteServlet.class
servlets\addPersonDiaryServlet.class
